-------------------------------------------------------------------------------
Test set: com.warathip.week6.AppTest
-------------------------------------------------------------------------------
Tests run: 1, Failures: 0, Errors: 0, Skipped: 0, Time elapsed: 0.087 s - in com.warathip.week6.AppTest
